Plot | 世昱
…
#关闭---------------------------------------------------------
par(opar)
dev.off()

控制台Console输出

> rm(list = ls())
> getwd()
[1] "B:/Temp1"
> setwd("B:/Temp1")
> library(readxl)
> data=read_xlsx("全国疫情整理-李世昱.xlsx")#读取数据
> data
# A tibble: 43 x 4
   报道时间            新增确诊 新增出院 新增死亡
   <dttm>                 <dbl>    <dbl>    <dbl>
 1 2020-01-11 00:00:00       41        2        1
 2 2020-01-12 00:00:00        0        4        0
 3 2020-01-13 00:00:00        0        1        0
 4 2020-01-16 00:00:00        0        5        1
 5 2020-01-17 00:00:00        2        0        0
 6 2020-01-18 00:00:00        5        4        0
 7 2020-01-19 00:00:00       17        4        0
 8 2020-01-20 00:00:00      156        6        2
 9 2020-01-21 00:00:00      103        0        2
10 2020-01-22 00:00:00      231        5       11
# ... with 33 more rows
…
